id,quarter,relative,absolute
1,Affoltern,8.63,1021
2,Albisrieden,9.403,1067
3,Wiedikon,9.104,892
4,Altstadt-City,10.961,421
41,Altstadt-Rathaus,10.961,421
42,Altstadt-Hochschulen,10.961,421
43,Altstadt-Lindenhof,10.961,421
5,Altstetten,4.132,688
6,Enge,12.202,639
7,Escher-Wyss,33.007,1045
8,Fluntern,23.769,985
9,Friesenberg,3.825,172
10,Gewerbeschule,7.207,379
11,Hard,3.875,270
12,Hirslanden,9.576,388
13,Hirzenbach,3.91,227
14,Höngg,14.692,1766
15,Hottingen,16.009,970
16,Langstrasse,7.559,500
17,Leimbach,8.253,222
18,Mühlebach,15.488,589
19,Oberstrass,13.925,789
20,Oerlikon,9.598,1142
21,Saatlen,3.329,111
22,Schwamendingen-Mitte,7.743,455
23,Seebach,10.137,1270
24,Seefeld,6.275,219
25,Sihlfeld,4.965,598
26,Unterstrass,7.205,893
27,Weinegg,9.512,263
28,Werd,3.528,85
29,Wipkingen,8.176,737
30,Witikon,16.805,975
31,Wollishofen,7.152,641
