id,quarter,relative,absolute
1,Affoltern,36.421,4309
2,Albisrieden,34.411,3905
3,Wiedikon,8.165,800
4,Altstadt-City,22.104,849
41,Altstadt-Rathaus,22.104,849
42,Altstadt-Hochschulen,22.104,849
43,Altstadt-Lindenhof,22.104,849
5,Altstetten,27.164,4523
6,Enge,6.893,361
7,Escher-Wyss,5.907,187
8,Fluntern,4.054,168
9,Friesenberg,69.78,3138
10,Gewerbeschule,30.595,1609
11,Hard,44.374,3092
12,Hirslanden,11.278,457
13,Hirzenbach,45.891,2664
14,Höngg,20.607,2477
15,Hottingen,3.301,200
16,Langstrasse,11.761,778
17,Leimbach,53.197,1431
18,Mühlebach,8.046,306
19,Oberstrass,14.437,818
20,Oerlikon,12.473,1484
21,Saatlen,69.886,2330
22,Schwamendingen-Mitte,32.148,1889
23,Seebach,24.657,3089
24,Seefeld,3.868,135
25,Sihlfeld,25.72,3098
26,Unterstrass,29.417,3646
27,Weinegg,9.693,268
28,Werd,8.51,205
29,Wipkingen,26.292,2370
30,Witikon,9.049,525
31,Wollishofen,30.793,2760
