[
  {
    "id": 1,
    "quarter": "Affoltern",
    "grund": 38500,
    "verheiratet": 70200
  },
  {
    "id": 2,
    "quarter": "Albisrieden",
    "grund": 42000,
    "verheiratet": 75000
  },
  {
    "id": 3,
    "quarter": "Wiedikon",
    "grund": 50000,
    "verheiratet": 85400
  },
  {
    "id": 4,
    "quarter": "Altstadt-City",
    "grund": 30050,
    "verheiratet": 97550
  },
  {
    "id": 41,
    "quarter": "Altstadt-Rathaus",
    "grund": 49050,
    "verheiratet": 118850
  },
  {
    "id": 42,
    "quarter": "Altstadt-Hochschulen",
    "grund": 34900,
    "verheiratet": 143000
  },
  {
    "id": 43,
    "quarter": "Altstadt-Lindenhof",
    "grund": 53300,
    "verheiratet": 119250
  },
  {
    "id": 5,
    "quarter": "Altstetten",
    "grund": 40200,
    "verheiratet": 64200
  },
  {
    "id": 6,
    "quarter": "Enge",
    "grund": 56300,
    "verheiratet": 120000
  },
  {
    "id": 7,
    "quarter": "Escher-Wyss",
    "grund": 60000,
    "verheiratet": 108400
  },
  {
    "id": 8,
    "quarter": "Fluntern",
    "grund": 54500,
    "verheiratet": 162300
  },
  {
    "id": 9,
    "quarter": "Friesenberg",
    "grund": 32200,
    "verheiratet": 67400
  },
  {
    "id": 10,
    "quarter": "Gewerbeschule",
    "grund": 40700,
    "verheiratet": 64700
  },
  {
    "id": 11,
    "quarter": "Hard",
    "grund": 34300,
    "verheiratet": 50700
  },
  {
    "id": 12,
    "quarter": "Hirslanden",
    "grund": 48400,
    "verheiratet": 112100
  },
  {
    "id": 13,
    "quarter": "Hirzenbach",
    "grund": 28850,
    "verheiratet": 55700
  },
  {
    "id": 14,
    "quarter": "Höngg",
    "grund": 48400,
    "verheiratet": 92500
  },
  {
    "id": 15,
    "quarter": "Hottingen",
    "grund": 54100,
    "verheiratet": 135200
  },
  {
    "id": 16,
    "quarter": "Langstrasse",
    "grund": 40500,
    "verheiratet": 57100
  },
  {
    "id": 17,
    "quarter": "Leimbach",
    "grund": 38150,
    "verheiratet": 72200
  },
  {
    "id": 18,
    "quarter": "Mühlebach",
    "grund": 53950,
    "verheiratet": 116550
  },
  {
    "id": 19,
    "quarter": "Oberstrass",
    "grund": 50000,
    "verheiratet": 128700
  },
  {
    "id": 20,
    "quarter": "Oerlikon",
    "grund": 45000,
    "verheiratet": 81000
  },
  {
    "id": 21,
    "quarter": "Saatlen",
    "grund": 32000,
    "verheiratet": 59800
  },
  {
    "id": 22,
    "quarter": "Schwamendingen-Mitte",
    "grund": 32900,
    "verheiratet": 57400
  },
  {
    "id": 23,
    "quarter": "Seebach",
    "grund": 38600,
    "verheiratet": 65400
  },
  {
    "id": 24,
    "quarter": "Seefeld",
    "grund": 60000,
    "verheiratet": 118400
  },
  {
    "id": 25,
    "quarter": "Sihlfeld",
    "grund": 42200,
    "verheiratet": 59700
  },
  {
    "id": 26,
    "quarter": "Unterstrass",
    "grund": 45800,
    "verheiratet": 82450
  },
  {
    "id": 27,
    "quarter": "Weinegg",
    "grund": 44900,
    "verheiratet": 104200
  },
  {
    "id": 28,
    "quarter": "Werd",
    "grund": 46700,
    "verheiratet": 63050
  },
  {
    "id": 29,
    "quarter": "Wipkingen",
    "grund": 45000,
    "verheiratet": 72650
  },
  {
    "id": 30,
    "quarter": "Witikon",
    "grund": 44850,
    "verheiratet": 102500
  },
  {
    "id": 31,
    "quarter": "Wollishofen",
    "grund": 42500,
    "verheiratet": 83650
  }
]
